<svg xmlns="http://www.w3.org/2000/svg" xmlns:xlink="http://www.w3.org/1999/xlink" xmlns:ev="http://www.w3.org/2001/xml-events"
		xmlns:v="http://schemas.microsoft.com/visio/2003/SVGExtensions/" width="2.90412in" height="3.02223in"
		viewBox="0 0 209.096 217.6" xml:space="preserve" color-interpolation-filters="sRGB" class="st2">



<linearGradient id="anim"  fy="0">
      <stop offset="0" stop-color="#148F01">
		</stop>
		<stop offset=".7" stop-color="#46DF04">
		</stop>
    </linearGradient>
    
    
		<g id="shape1-1" v:mID="1" v:groupContext="shape" transform="translate(0.375,-0.375)">
			<path fill="url(#anim)"  stroke='rgba(49,163,0,0.7)' d="M208.35 217.6 L208.35 0.75 L38.27 0.75 L38.27 26.26 L0 26.26 L0 179.33 L94.96 179.33 L94.96 217.6 L208.35 217.6
						 Z" class="st1"/>
		</g>
</svg>
