<?xml version="1.0" encoding="UTF-8"?>
<svg width="38px" height="42px" viewBox="0 0 38 42" version="1.1" xmlns="http://www.w3.org/2000/svg" xmlns:xlink="http://www.w3.org/1999/xlink">
    <!-- Generator: Sketch 53.2 (72643) - https://sketchapp.com -->
    <title>ico_mc</title>
    <desc>Created with Sketch.</desc>
    <g id="spec" stroke="none" stroke-width="1" fill="none" fill-rule="evenodd">
        <g id="Artboard" transform="translate(-1336.000000, -70.000000)">
            <g id="ico_mc" transform="translate(1336.000000, 70.000000)">
                <rect id="Rectangle" fill="#6699F0" x="0" y="9" width="12" height="27" rx="1"></rect>
                <path d="M14,9 L27,9 C27.5522847,9 28,9.44771525 28,10 L28,35 C28,35.5522847 27.5522847,36 27,36 L14,36 C13.4477153,36 13,35.5522847 13,35 L13,10 C13,9.44771525 13.4477153,9 14,9 Z M17,17 C16.4477153,17 16,17.4477153 16,18 L16,24 C16,24.5522847 16.4477153,25 17,25 L24,25 C24.5522847,25 25,24.5522847 25,24 L25,18 C25,17.4477153 24.5522847,17 24,17 L17,17 Z" id="Combined-Shape" fill="#000000"></path>
                <rect id="Rectangle-Copy-77" fill="#000000" x="16" y="0" width="9" height="8" rx="1"></rect>
                <rect id="Rectangle-Copy-78" fill="#000000" x="0" y="37" width="38" height="5" rx="1"></rect>
                <rect id="Rectangle-Copy-76" fill="#9B9B9B" x="29" y="9" width="9" height="27" rx="1"></rect>
            </g>
        </g>
    </g>
</svg>