<?xml version="1.0" encoding="UTF-8"?>
<svg width="120px" height="120px" viewBox="0 0 120 120" version="1.1" xmlns="http://www.w3.org/2000/svg" xmlns:xlink="http://www.w3.org/1999/xlink">
    <!-- Generator: Sketch 53.2 (72643) - https://sketchapp.com -->
    <title>btn_app_qm_pushed</title>
    <desc>Created with Sketch.</desc>
    <g id="spec" stroke="none" stroke-width="1" fill="none" fill-rule="evenodd">
        <g id="Artboard" transform="translate(-596.000000, -1216.000000)">
            <g id="btn_app_qm_pushed" transform="translate(596.000000, 1216.000000)">
                <rect id="Rectangle-Copy-92" fill="#000000" x="0" y="0" width="120" height="120" rx="6"></rect>
                <g id="Group-66" transform="translate(16.000000, 9.000000)" fill-rule="nonzero" stroke="#FFFFFF" stroke-width="2">
                    <g id="Group-65" transform="translate(-0.000000, -0.000000)">
                        <rect id="Rectangle-Copy-17" x="1" y="12.9432751" width="72.6666667" height="83.3333333" rx="6"></rect>
                        <path d="M28.8,29.5432751 L50.8141227,29.5432751" id="Path-6-Copy-3"></path>
                        <path d="M28.8,42.3432751 L48.6807894,42.3432751" id="Path-6-Copy-4"></path>
                        <path d="M28.8,55.1432751 L59.7333333,55.1432751" id="Path-6-Copy-5"></path>
                        <polygon id="Triangle" stroke-linejoin="round" transform="translate(53.149196, 38.346964) rotate(-141.000000) translate(-53.149196, -38.346964) " points="53.2614136 31.946964 60.0825292 44.7011386 46.2158625 44.746964"></polygon>
                        <path d="M64.3168057,2.2133051 L75.196212,2.15077936 C76.8530389,2.14125731 78.2038816,3.47666172 78.2134037,5.13348861 C78.2134716,5.14529784 78.2134697,5.15710737 78.2133981,5.16891658 L78.0628331,30.0049312 C78.0528726,31.6479366 76.7231378,32.9772523 75.0801294,32.9866949 L64.2007232,33.0492206 C62.5438963,33.0587427 61.1930535,31.7233383 61.1835315,30.0665114 C61.1834636,30.0547022 61.1834655,30.0428926 61.1835371,30.0310834 L61.3341021,5.19506879 C61.3440626,3.55206344 62.6737973,2.22274774 64.3168057,2.2133051 Z" id="Rectangle" fill="#000000" stroke-linejoin="round" transform="translate(69.698468, 17.600000) rotate(-141.000000) translate(-69.698468, -17.600000) "></path>
                    </g>
                    <polyline id="Path-7" points="8.53333333 28.2099418 14.6666667 34.3432751 25.3333333 23.6766085"></polyline>
                    <polyline id="Path-7-Copy" points="8.53333333 41.0099418 14.6666667 47.1432751 25.3333333 36.4766085"></polyline>
                    <polyline id="Path-7-Copy-2" points="8.53333333 53.8099418 14.6666667 59.9432751 25.3333333 49.2766085"></polyline>
                </g>
            </g>
        </g>
    </g>
</svg>