<?xml version="1.0" encoding="UTF-8"?>
<svg width="40px" height="9px" viewBox="0 0 40 9" version="1.1" xmlns="http://www.w3.org/2000/svg" xmlns:xlink="http://www.w3.org/1999/xlink">
    <!-- Generator: Sketch 53.2 (72643) - https://sketchapp.com -->
    <title>info_spindle_load</title>
    <desc>Created with Sketch.</desc>
    <g id="spec" stroke="none" stroke-width="1" fill="none" fill-rule="evenodd" stroke-linecap="round" stroke-linejoin="bevel">
        <g id="Artboard" transform="translate(-1687.000000, -101.000000)" stroke="#666BF0" stroke-width="8">
            <path d="M1722.25781,105.5 L1691,105.5" id="info_spindle_load"></path>
        </g>
    </g>
</svg>