<?xml version="1.0" encoding="UTF-8"?>
<svg width="40px" height="40px" viewBox="0 0 40 40" version="1.1" xmlns="http://www.w3.org/2000/svg" xmlns:xlink="http://www.w3.org/1999/xlink">
    <!-- Generator: Sketch 53.2 (72643) - https://sketchapp.com -->
    <title>Group 14 Copy 2</title>
    <desc>Created with Sketch.</desc>
    <g id="spec" stroke="none" stroke-width="1" fill="none" fill-rule="evenodd">
        <g id="Artboard" transform="translate(-55.000000, -960.000000)">
            <g id="Group-14-Copy-2" transform="translate(55.000000, 960.000000)">
                <rect id="Rectangle-Copy-51" fill="#6699F0" fill-rule="nonzero" x="0" y="0" width="40" height="40" rx="2"></rect>
                <g id="Group-8" transform="translate(6.000000, 8.000000)">
                    <path d="M0.743589744,11.4246427 L2.68533746,11.4246427 C3.00454701,10.5661503 3.32408769,9.70829332 3.64362838,8.85043634 C4.40655245,10.9003968 5.16980765,12.9500395 5.93240059,15 C6.58472716,11.9431696 7.23639147,8.88602152 7.88805578,5.82950887 C8.4205132,8.19369916 8.95363289,10.5585249 9.48642144,12.9223975 L12.8275255,12.9223975 C13.0781911,13.602964 14.1282051,13.429804 14.1282051,12.708251 C14.1282051,11.9863802 13.0781911,11.8138556 12.8275255,12.4944222 L9.84669114,12.4944222 C9.18972875,9.5799325 8.53276635,6.66512511 7.87580396,3.75 C7.18937097,6.97141183 6.50227573,10.1925059 5.81584274,13.4129646 C5.09166091,11.4678533 4.36781021,9.52274204 3.64362838,7.57794849 C3.21945054,8.71730965 2.7952727,9.85698853 2.37109487,10.996032 L0.743589744,10.996032 L0.743589744,11.4246427 Z" id="Path" fill="#000000"></path>
                    <g id="Group" transform="translate(16.358974, 5.250000)">
                        <path d="M4.504976,0.277336957 C2.67574523,0.277336957 1.04389292,1.32831522 0.428914462,2.90201087 C-0.186064,4.47570652 0.348606769,6.23298913 1.76487754,7.2911413 C2.17034215,6.83788043 2.57652062,6.38461957 2.98269908,5.93103261 C1.23413292,4.62440217 2.245296,2.03461957 4.504976,2.03461957 C6.764656,2.03461957 7.77653292,4.62440217 6.02760985,5.93103261 C6.43414523,6.38461957 6.83960985,6.83788043 7.24578831,7.2911413 C8.66170215,6.23298913 9.19637292,4.47570652 8.58103754,2.90201087 C7.96605908,1.32831522 6.33420677,0.277336957 4.504976,0.277336957" id="Path" fill="#000000"></path>
                        <path d="M6.18215754,2.0861413 C4.99110523,1.30907609 3.35175754,1.46983696 2.36736369,2.46048913 C1.38439754,3.4511413 1.368336,4.95733696 2.33095754,5.96461957 C2.12608369,6.19353261 1.92085292,6.42277174 1.71597908,6.65168478 C0.350391385,5.33853261 0.301136,3.29201087 1.60176369,1.92538043 C2.90274831,0.558097826 5.12780677,0.318423913 6.741456,1.37168478 C6.55442831,1.60972826 6.36847138,1.84809783 6.18215754,2.0861413" id="Path" fill="#6699F0"></path>
                    </g>
                    <rect id="Rectangle" stroke="#000000" stroke-width="2" fill-rule="nonzero" x="1" y="1" width="27" height="17.5" rx="2"></rect>
                    <polygon id="Rectangle" fill="#000000" fill-rule="nonzero" points="10.9998263 19.5 18.0001737 19.5 18.5897436 22.5 10.4102564 22.5"></polygon>
                    <rect id="Rectangle" fill="#000000" fill-rule="nonzero" x="10.4102564" y="23.25" width="8.17948718" height="1"></rect>
                </g>
            </g>
        </g>
    </g>
</svg>