<?xml version="1.0" encoding="UTF-8"?>
<svg width="17px" height="17px" viewBox="0 0 17 17" version="1.1" xmlns="http://www.w3.org/2000/svg" xmlns:xlink="http://www.w3.org/1999/xlink">
    <!-- Generator: Sketch 53.2 (72643) - https://sketchapp.com -->
    <title>ico_clock</title>
    <desc>Created with Sketch.</desc>
    <g id="spec" stroke="none" stroke-width="1" fill="none" fill-rule="evenodd">
        <g id="Artboard" transform="translate(-521.000000, -148.000000)" fill-rule="nonzero" stroke="#FFFFFF" stroke-width="2">
            <g id="ico_clock" transform="translate(522.000000, 149.000000)">
                <g id="Group-5">
                    <circle id="Oval" cx="7.5" cy="7.5" r="7.5"></circle>
                    <polyline id="Path-5" points="7.5 2.72727273 7.5 7.5 4.09090909 10.9090909"></polyline>
                </g>
            </g>
        </g>
    </g>
</svg>