<?xml version="1.0" encoding="UTF-8"?>
<svg width="41px" height="28px" viewBox="0 0 41 28" version="1.1" xmlns="http://www.w3.org/2000/svg" xmlns:xlink="http://www.w3.org/1999/xlink">
    <!-- Generator: Sketch 53.2 (72643) - https://sketchapp.com -->
    <title>ico_factory</title>
    <desc>Created with Sketch.</desc>
    <g id="spec" stroke="none" stroke-width="1" fill="none" fill-rule="evenodd">
        <g id="Artboard" transform="translate(-1382.000000, -77.000000)" fill-rule="nonzero">
            <g id="ico_factory" transform="translate(1382.000000, 77.000000)">
                <path d="M0,16.0140965 L14,8 L14,26 L0,26 L0,16.0140965 Z M2,23 L2,24 L13,24 L13,23 L2,23 Z" id="Combined-Shape" fill="#6699F0"></path>
                <path d="M14,16.0140965 L28,8 L28,26 L14,26 L14,16.0140965 Z M15,23 L15,24 L26,24 L26,23 L15,23 Z" id="Combined-Shape" fill="#6699F0"></path>
                <path d="M27,16.0140965 L41,8 L41,26 L27,26 L27,16.0140965 Z M28,23 L28,24 L39,24 L39,23 L28,23 Z" id="Combined-Shape" fill="#6699F0"></path>
                <rect id="Rectangle" fill="#6699F0" x="4" y="0" width="4" height="1"></rect>
                <rect id="Rectangle-Copy" fill="#6699F0" x="18" y="0" width="4" height="1"></rect>
                <rect id="Rectangle-Copy-2" fill="#6699F0" x="31" y="0" width="4" height="1"></rect>
                <rect id="Rectangle" stroke="#00C6FF" x="0.5" y="27.5" width="40" height="1"></rect>
                <polygon id="Path-11" fill="#00C6FF" points="4 13 4 2 8 2 8 10.4800338"></polygon>
                <polygon id="Path-11-Copy" fill="#00C6FF" points="18 13 18 2 22 2 22 10.4800338"></polygon>
                <polygon id="Path-11-Copy-2" fill="#00C6FF" points="31 13 31 2 35 2 35 10.4800338"></polygon>
            </g>
        </g>
    </g>
</svg>